{
  "migIndex": 1,
  "data": [
    {
      "path": "src/assets/fonts/Inter-Black.ttf",
      "sha1": "283fa65b96dc1f2d71c6504afb9610447bdcdf1b"
    },
    {
      "path": "src/assets/fonts/Inter-Bold.ttf",
      "sha1": "48747b7a60086f97af0d373febcbd1f1bee87f17"
    },
    {
      "path": "src/assets/fonts/Inter-ExtraBold.ttf",
      "sha1": "bff772be6bca9895c6fdcd57e5d5be9a47f2e058"
    },
    {
      "path": "src/assets/fonts/Inter-ExtraLight.ttf",
      "sha1": "421072aef8610cb0f79661b494442a4b9363b43f"
    },
    {
      "path": "src/assets/fonts/Inter-Light.ttf",
      "sha1": "dd9ec1ae67dd85143bacf7a3cb37e9f0ac979843"
    },
    {
      "path": "src/assets/fonts/Inter-Medium.ttf",
      "sha1": "a418a8ba73bbcfa8c131c426ab836d78457afa9b"
    },
    {
      "path": "src/assets/fonts/Inter-Regular.ttf",
      "sha1": "7237d9cf55f177702066a28a4dde1e4c7e8ab576"
    },
    {
      "path": "src/assets/fonts/Inter-SemiBold.ttf",
      "sha1": "431007da316de60d85174aeec9b8389b5c73e7d6"
    },
    {
      "path": "src/assets/fonts/Inter-Thin.ttf",
      "sha1": "297919d59c9ba4fa17251cdb9f06c26ca906e593"
    },
    {
      "path": "src/assets/fonts/Poppins-Bold.ttf",
      "sha1": "875cf0cecd647bcf22e79d633d868c1b1ec98dfa"
    },
    {
      "path": "src/assets/fonts/Poppins-BoldItalic.ttf",
      "sha1": "6de8952ca08d27ee77f57347d2cef4b4e26aa78f"
    },
    {
      "path": "src/assets/fonts/Poppins-ExtraBold.ttf",
      "sha1": "4b5c0750f073abd576413a0898d3b95adaf199c8"
    },
    {
      "path": "src/assets/fonts/Poppins-ExtraBoldItalic.ttf",
      "sha1": "94d3ee3acdbd00e37a715a25f2b5237666b5b8a3"
    },
    {
      "path": "src/assets/fonts/Poppins-ExtraLight.ttf",
      "sha1": "85af6582a7e6155917c605f9d3fed68c02b23b06"
    },
    {
      "path": "src/assets/fonts/Poppins-ExtraLightItalic.ttf",
      "sha1": "6fa0418f91032680d2d8fe4843009f2c80faa61d"
    },
    {
      "path": "src/assets/fonts/Poppins-Italic.ttf",
      "sha1": "e2bfcd56016c3c915221ef1c5fc1a17b0776eb91"
    },
    {
      "path": "src/assets/fonts/Poppins-Light.ttf",
      "sha1": "e247a92158e112f8bf7b638c8d95381d66b00dbb"
    },
    {
      "path": "src/assets/fonts/Poppins-LightItalic.ttf",
      "sha1": "f76102b361e705751a83b7b22fe954daf1f27dd4"
    },
    {
      "path": "src/assets/fonts/Poppins-Medium.ttf",
      "sha1": "283f21b44efbdbf276ba802be2d949a36bbc4233"
    },
    {
      "path": "src/assets/fonts/Poppins-MediumItalic.ttf",
      "sha1": "b592c62fdf88c40cfd0f031bba6423b1d4430472"
    },
    {
      "path": "src/assets/fonts/Poppins-Regular.ttf",
      "sha1": "fdd3002e7d814ee47c1c1b8487c72c6bbb3a2d00"
    },
    {
      "path": "src/assets/fonts/Poppins-SemiBold.ttf",
      "sha1": "8a4ace9392d06bcb7f8ea2f5169b07e4c383a90d"
    },
    {
      "path": "src/assets/fonts/Poppins-SemiBoldItalic.ttf",
      "sha1": "0c8bed0a5942b2388d36b11c115685d9f01700b0"
    }
  ]
}
